<?xml version="1.0" encoding="UTF-8"?>
<svg width="100px" height="100px" viewBox="0 0 100 100" version="1.1" xmlns="http://www.w3.org/2000/svg" xmlns:xlink="http://www.w3.org/1999/xlink">
    <!-- Generator: Sketch 53 (72520) - https://sketchapp.com -->
    <title>Bitmap Copy</title>
    <desc>Created with Sketch.</desc>
    <defs>
        <circle id="path-1" cx="50" cy="50" r="50"></circle>
    </defs>
    <g id="Homepage-P-Copy-2" stroke="none" stroke-width="1" fill="none" fill-rule="evenodd">
        <g id="UI" transform="translate(-118.000000, -705.000000)">
            <g id="Bitmap-Copy" transform="translate(118.000000, 705.000000)">
                <mask id="mask-2" fill="white">
                    <use xlink:href="#path-1"></use>
                </mask>
                <use id="Mask" fill="#EFEFEF" xlink:href="#path-1"></use>
                <g id="xabardor-logo" mask="url(#mask-2)" fill="#9E9E9E">
                    <g transform="translate(14.000000, 44.000000)" id="Combined-Shape">
                        <path d="M61.75125,10.0485 C63.07125,10.0485 64.14075,8.9235 64.14075,7.5375 C64.14075,6.1515 63.07125,5.0265 61.75125,5.0265 C60.4314,5.0265 59.3619,6.1515 59.3619,7.5375 C59.3619,8.9235 60.4314,10.0485 61.75125,10.0485 Z M61.75125,3.075 C64.3554,3.075 66.4674,5.073 66.4674,7.5375 C66.4674,10.002 64.3554,12 61.75125,12 C59.14725,12 57.0354,10.002 57.0354,7.5375 C57.0354,5.073 59.14725,3.075 61.75125,3.075 Z M40.86375,11.92485 L40.86375,7.0482 C40.86375,4.89525 42.609,3.14985 44.7621,3.14985 L46.22625,3.14985 L46.22625,5.3436 L45.47535,5.3436 C44.27475,5.3436 43.30125,6.3171 43.30125,7.51785 L43.30125,11.92485 L40.86375,11.92485 Z M71.16195,3.14985 L72.62625,3.14985 L72.62625,5.3436 L71.87535,5.3436 C70.67475,5.3436 69.70125,6.3171 69.70125,7.51785 L69.70125,11.92485 L67.26375,11.92485 L67.26375,7.0482 C67.26375,4.89525 69.009,3.14985 71.16195,3.14985 Z M10.05,3.15 L6.492,7.5375 L10.05,11.925 L7.116,11.925 L5.025,9.3465 L2.934,11.925 L9.05941988e-14,11.925 L3.558,7.5375 L9.05941988e-14,3.15 L2.934,3.15 L5.025,5.7285 L7.116,3.15 L10.05,3.15 Z M14.166,10.0485 C15.486,10.0485 16.5555,8.9235 16.5555,7.5375 C16.5555,6.1515 15.486,5.0265 14.166,5.0265 C12.846,5.0265 11.7765,6.1515 11.7765,7.5375 C11.7765,8.9235 12.846,10.0485 14.166,10.0485 Z M16.63815,3.15 L18.882,3.15 L18.882,11.8815 L16.63815,11.8815 L16.63815,11.3376 C15.9192,11.7573 15.0726,12 14.166,12 C11.562,12 9.45,10.002 9.45,7.5375 C9.45,5.073 11.562,3.075 14.166,3.075 C15.0726,3.075 15.9192,3.3177 16.63815,3.7374 L16.63815,3.15 Z M35.016,10.0485 C36.336,10.0485 37.4055,8.9235 37.4055,7.5375 C37.4055,6.1515 36.336,5.0265 35.016,5.0265 C33.696,5.0265 32.6265,6.1515 32.6265,7.5375 C32.6265,8.9235 33.696,10.0485 35.016,10.0485 Z M37.48815,3.15 L39.732,3.15 L39.732,11.8815 L37.48815,11.8815 L37.48815,11.3376 C36.7692,11.7573 35.9226,12 35.016,12 C32.412,12 30.3,10.002 30.3,7.5375 C30.3,5.073 32.412,3.075 35.016,3.075 C35.9226,3.075 36.7692,3.3177 37.48815,3.7374 L37.48815,3.15 Z M24.966,10.0485 C26.286,10.0485 27.3555,8.9235 27.3555,7.5375 C27.3555,6.1515 26.286,5.0265 24.966,5.0265 C23.646,5.0265 22.5765,6.1515 22.5765,7.5375 C22.5765,8.9235 23.646,10.0485 24.966,10.0485 Z M24.966,3.075 C27.57,3.075 29.682,5.073 29.682,7.5375 C29.682,10.002 27.57,12 24.966,12 C24.0594,12 23.21295,11.7573 22.494,11.3376 L22.494,11.8815 L20.25,11.8815 L20.25,0.01725 L22.494,0.01725 L22.494,3.7374 C23.21295,3.3177 24.0594,3.075 24.966,3.075 Z M51.3285,10.0485 C52.6485,10.0485 53.718,8.9235 53.718,7.5375 C53.718,6.1515 52.6485,5.0265 51.3285,5.0265 C50.0085,5.0265 48.939,6.1515 48.939,7.5375 C48.939,8.9235 50.0085,10.0485 51.3285,10.0485 Z M53.80065,0.01725 L56.0445,0.01725 L56.0445,11.8815 L53.80065,11.8815 L53.80065,11.3376 C53.0817,11.7573 52.2351,12 51.3285,12 C48.7245,12 46.6125,10.002 46.6125,7.5375 C46.6125,5.073 48.7245,3.075 51.3285,3.075 C52.2351,3.075 53.0817,3.3177 53.80065,3.7374 L53.80065,0.01725 Z"></path>
                    </g>
                </g>
            </g>
        </g>
    </g>
</svg>