<?xml version="1.0" encoding="UTF-8"?>
<svg width="30px" height="30px" viewBox="0 0 30 30" version="1.1" xmlns="http://www.w3.org/2000/svg" xmlns:xlink="http://www.w3.org/1999/xlink">
    <!-- Generator: Sketch 53 (72520) - https://sketchapp.com -->
    <title>Screen Shot 2017-02-13 at 4.25.14 PM Copy 2</title>
    <desc>Created with Sketch.</desc>
    <defs>
        <ellipse id="path-1" cx="14.9674772" cy="15" rx="14.9674772" ry="15"></ellipse>
    </defs>
    <g id="Homepage-P-Copy-2" stroke="none" stroke-width="1" fill="none" fill-rule="evenodd">
        <g id="UI" transform="translate(-144.000000, -864.000000)">
            <g id="Screen-Shot-2017-02-13-at-4.25.14-PM-Copy-2" transform="translate(144.000000, 864.000000)">
                <mask id="mask-2" fill="white">
                    <use xlink:href="#path-1"></use>
                </mask>
                <use id="Mask" fill="#EFEFEF" xlink:href="#path-1"></use>
                <g id="Male" mask="url(#mask-2)" stroke="#D0D0D0" stroke-linecap="round" stroke-linejoin="round">
                    <g transform="translate(6.000000, 7.000000)">
                        <path d="M12.0967347,17.025502 C12.2436735,16.9618286 16.2286531,18.0775837 16.2286531,18.0775837 C17.5124082,18.5497469 18.3710204,19.8129306 18.3710204,21.2304 L18.3710204,23.5466449 C18.3710204,23.7107265 18.2387755,23.8454204 18.0766531,23.8454204 L0.460163265,23.8454204 C0.301469388,23.8454204 0.173142857,23.7151347 0.173142857,23.5544816 L0.173142857,21.2304 C0.173142857,19.8129306 1.0317551,18.5497469 2.316,18.0775837 C2.316,18.0775837 6.29461224,16.960849 6.43959184,17.0240327 C6.88383673,17.2165224 8.33853061,18.2142367 9.21232653,18.2240327 C10.1404898,18.2343184 11.6377959,17.2238694 12.0967347,17.025502 Z" id="Stroke-152"></path>
                        <path d="M3.08605714,7.21621224 C3.08605714,3.09702857 6.56017959,0.335069388 9.91038367,0.335069388 L9.91038367,1.39890612 C12.8418122,1.39890612 15.218302,3.66470204 15.218302,7.04331429 L15.218302,7.21621224" id="Stroke-154"></path>
                        <path d="M4.29345306,8.34597551 C4.65541224,8.01977143 5.1163102,7.53242449 5.52235102,6.8589551 C6.05475918,5.97536327 6.26684082,5.14662857 6.35892245,4.6034449 C7.01916735,4.38842449 8.01002449,4.1474449 9.23059592,4.14205714 C10.4928,4.13617959 11.5145143,4.38548571 12.1850449,4.6034449 C12.2776163,5.14662857 12.4892082,5.97536327 13.0221061,6.8589551 C13.4281469,7.53242449 13.8890449,8.01977143 14.2505143,8.34597551" id="Stroke-156"></path>
                        <path d="M14.2509061,8.23523265 C14.4316408,7.77482449 14.8004571,7.45939592 15.2260898,7.45939592 C15.4778449,7.45939592 15.7095184,7.5696 15.8941714,7.75474286 C16.1527837,8.0138449 16.1851102,8.41988571 16.1851102,8.87686531 C16.1851102,9.66004898 15.9774367,10.2850286 15.5949061,10.6205388 C15.3544163,10.8316408 14.7196408,10.8776816 14.6001306,10.6896 L14.4918857,11.1255184 C14.0412735,13.135151 11.9988245,15.5322122 9.27702857,15.4998857 C6.68747755,15.532702 4.49906939,13.0940082 4.05237551,11.0510694 L3.94413061,10.6896 C3.8251102,10.8776816 3.1898449,10.8316408 2.9493551,10.6205388 C2.56682449,10.2850286 2.35915102,9.66004898 2.35915102,8.87686531 C2.35915102,8.41988571 2.39147755,8.0138449 2.6500898,7.75474286 C2.83523265,7.5696 3.06690612,7.45939592 3.31817143,7.45939592 C3.74380408,7.45939592 4.1131102,7.77482449 4.2933551,8.23523265" id="Stroke-158"></path>
                    </g>
                </g>
            </g>
        </g>
    </g>
</svg>